MyLabJournal - Challenge 3 (II) & 4 combined Automated Machine Learning and Performance Measures
…
predictions_tbl %>%
  glimpse()

Rows: 2,858
Columns: 3
$ predict <fct> Yes, Yes, Yes, Yes, Yes, Yes, No, No, Yes, Yes, Yes, Yes, No, …
$ No      <dbl> 0.30736370, 0.50370304, 0.06602003, 0.16403161, 0.04737343, 0.…
$ Yes     <dbl> 0.69263630, 0.49629696, 0.93397997, 0.83596839, 0.95262657, 0.…

automl_models_h2o@leaderboard %>% 
              as_tibble() %>% 
              select(-c(mean_per_class_error, rmse, mse))

# A tibble: 29 × 4
   model_id                                                  auc logloss aucpr
   <chr>                                                   <dbl>   <dbl> <dbl>
 1 StackedEnsemble_AllModels_3_AutoML_1_20240625_232705    0.955   0.173 0.760
 2 StackedEnsemble_AllModels_2_AutoML_1_20240625_232705    0.955   0.173 0.760
 3 StackedEnsemble_BestOfFamily_4_AutoML_1_20240625_232705 0.954   0.174 0.759
 4 StackedEnsemble_AllModels_1_AutoML_1_20240625_232705    0.954   0.174 0.758
 5 StackedEnsemble_BestOfFamily_3_AutoML_1_20240625_232705 0.953   0.174 0.756
 6 StackedEnsemble_BestOfFamily_2_AutoML_1_20240625_232705 0.952   0.176 0.757
 7 GBM_grid_1_AutoML_1_20240625_232705_model_3             0.952   0.178 0.750
 8 StackedEnsemble_BestOfFamily_1_AutoML_1_20240625_232705 0.951   0.178 0.751
 9 GBM_1_AutoML_1_20240625_232705                          0.950   0.179 0.750
10 GBM_3_AutoML_1_20240625_232705                          0.950   0.181 0.750
# ℹ 19 more rows
…
