Challenge 5- LIME – MyLabJournal
…
  |                                                                            
  |                                                                      |   0%
  |                                                                            
  |======================================================================| 100%

  |                                                                            
  |                                                                      |   0%
  |                                                                            
  |======================================================================| 100%

explanation

# A tibble: 160 × 13
   model_type   case  label label_prob model_r2 model_intercept model_prediction
   <chr>        <chr> <chr>      <dbl>    <dbl>           <dbl>            <dbl>
 1 classificat… 1     No         0.565    0.345           0.907            0.517
 2 classificat… 1     No         0.565    0.345           0.907            0.517
 3 classificat… 1     No         0.565    0.345           0.907            0.517
 4 classificat… 1     No         0.565    0.345           0.907            0.517
 5 classificat… 1     No         0.565    0.345           0.907            0.517
 6 classificat… 1     No         0.565    0.345           0.907            0.517
 7 classificat… 1     No         0.565    0.345           0.907            0.517
 8 classificat… 1     No         0.565    0.345           0.907            0.517
 9 classificat… 2     No         0.777    0.420           0.737            0.620
10 classificat… 2     No         0.777    0.420           0.737            0.620
# ℹ 150 more rows
# ℹ 6 more variables: feature <chr>, feature_value <dbl>, feature_weight <dbl>,
#   feature_desc <chr>, data <list>, prediction <list>

explanation %>% 
  as.tibble()

# A tibble: 160 × 13
   model_type   case  label label_prob model_r2 model_intercept model_prediction
   <chr>        <chr> <chr>      <dbl>    <dbl>           <dbl>            <dbl>
 1 classificat… 1     No         0.565    0.345           0.907            0.517
 2 classificat… 1     No         0.565    0.345           0.907            0.517
 3 classificat… 1     No         0.565    0.345           0.907            0.517
 4 classificat… 1     No         0.565    0.345           0.907            0.517
 5 classificat… 1     No         0.565    0.345           0.907            0.517
 6 classificat… 1     No         0.565    0.345           0.907            0.517
 7 classificat… 1     No         0.565    0.345           0.907            0.517
 8 classificat… 1     No         0.565    0.345           0.907            0.517
 9 classificat… 2     No         0.777    0.420           0.737            0.620
10 classificat… 2     No         0.777    0.420           0.737            0.620
# ℹ 150 more rows
# ℹ 6 more variables: feature <chr>, feature_value <dbl>, feature_weight <dbl>,
#   feature_desc <chr>, data <list>, prediction <list>
…
